{
    "openapi": "3.0.0",
    "info": {
        "title": "Poznan ISS distance calc API",
        "version": "0.1"
    },
    "paths": {
        "/api/v1/calculate": {
            "get": {
                "operationId": "App\\Http\\Controllers\\CalculatorController::calculate",
                "responses": {
                    "200": {
                        "description": "Poznan to ISS distance in meters",
                        "content": {
                            "application/json": {
                                "schema": {
                                    "properties": {
                                        "data": {
                                            "properties": {
                                                "distanceFromPoznan": {
                                                    "type": "string",
                                                    "example": "123.31 m"
                                                }
                                            },
                                            "type": "object"
                                        }
                                    },
                                    "type": "object"
                                }
                            }
                        }
                    }
                }
            }
        }
    },
    "security": [
        []
    ]
}